<?xml version="1.0" encoding="UTF-8" standalone="no"?><!DOCTYPE svg PUBLIC "-//W3C//DTD SVG 1.1//EN" "http://www.w3.org/Graphics/SVG/1.1/DTD/svg11.dtd">
<svg xmlns="http://www.w3.org/2000/svg" version="1.1" class="" style="width: 1116px; height: 91.640625px;"><!-- document: /cuneiform/Syntax Examples//nsubj --><defs><filter id="Gaussian_Blur"><feGaussianBlur in="SourceGraphic" stdDeviation="2"/></filter><marker id="drag_arrow" refX="5" refY="2.5" markerWidth="5" markerHeight="5" orient="auto" markerUnits="strokeWidth" class="drag_fill"><polyline points="0,0 5,2.5 0,5 0.2,2.5"/></marker><marker id="arrow_triangle_5_black" refX="5" refY="2.5" markerWidth="5" markerHeight="5" orient="auto" markerUnits="strokeWidth" fill="black"><polyline points="0,0 5,2.5 0,5 0.4166666666666667,2.5"/></marker>
<font id="Liberation Sans" horiz-adv-x="1194" ><font-face
    font-family="Liberation Sans"
    units-per-em="2048"
    panose-1="2 11 6 4 2 2 2 2 2 4"
    ascent="1854"
    descent="-434"
    alphabetic="0" />
<missing-glyph horiz-adv-x="1536" d="M205 1409H1330V0H205V1409ZM281 1333V76H1254V1333H281Z" />
<glyph unicode=" " glyph-name="space" horiz-adv-x="569" />
<glyph unicode="!" glyph-name="exclam" horiz-adv-x="569" d="M359 397H211L187 1409H383L359 397ZM185 0V201H379V0H185Z" />
<glyph unicode="&quot;" glyph-name="quotedbl" horiz-adv-x="727" d="M618 966H476L456 1409H640L618 966ZM249 966H108L87 1409H271L249 966Z" />
<glyph unicode="#" glyph-name="numbersign" horiz-adv-x="1139" d="M896 885L818 516H1078V408H795L707 0H597L683 408H320L236 0H126L210 408H9V516H234L312 885H60V993H334L423 1401H533L445 993H808L896 1401H1006L918 993H1129V885H896ZM425 885L345 516H707L785
885H425Z" />
<glyph unicode="$" glyph-name="dollar" horiz-adv-x="1139" d="M518 20Q301 29 179 121T22 379L192 416Q203 363 226 320T288 244T383 193T518 168V664L498 669Q421 687 347 712T215 778T122 884T86 1046Q86 1130 118 1192T207 1295T344 1359T518 1385V1516H642V1385Q742
1380 814 1358T938 1295T1022 1198T1075 1065L901 1032Q881 1126 820 1178T642 1242V797Q701 783 758 768T866 733T962 684T1038 617T1088 523T1106 396Q1106 319 1078 254T993 138T849 57T642 20V-142H518V20ZM934 394Q934 457 911 497T847 562T753 604T642 635V167Q707
171 761 186T853 230T913 298T934 394ZM258 1048Q258 994 278 957T333 895T415 854T518 823V1244Q446 1240 396 1224T316 1181T272 1121T258 1048Z" />
<glyph unicode="%" glyph-name="percent" horiz-adv-x="1821" d="M1748 434Q1748 309 1723 224T1654 86T1552 11T1428 -12Q1362 -12 1305 10T1205 85T1138 222T1113 434Q1113 567 1137 654T1204 792T1305 864T1432 885Q1498 885 1555 865T1655 793T1723 654T1748
434ZM527 0H372L1294 1409H1451L527 0ZM394 1421Q458 1421 515 1401T615 1329T682 1192T707 975Q707 849 682 763T615 624T514 547T390 524Q323 524 265 547T165 623T98 762T73 975Q73 1106 97 1192T165 1329T267 1400T394 1421ZM1600 434Q1600 533 1589 598T1557
703T1504 758T1432 774Q1390 774 1358 758T1304 702T1271 598T1260 434Q1260 339 1271 275T1304 172T1357 115T1430 98Q1469 98 1500 115T1554 171T1588 275T1600 434ZM560 975Q560 1073 549 1138T517 1242T465 1297T394 1313Q351 1313 319 1297T264 1241T231 1137T220
975Q220 880 231 815T264 711T318 654T392 637Q430 637 461 654T514 710T548 815T560 975Z" />
<glyph unicode="&amp;" glyph-name="ampersand" horiz-adv-x="1366" d="M1193 -12Q1097 -12 1025 21T895 115Q865 89 827 65T743 22T642 -8T523 -20Q406 -20 321 10T180 92T99 216T72 371Q72 450 97 514T168 631T277 725T415 800Q397 834 383 872T357 950T340
1028T334 1102Q334 1168 354 1225T416 1325T525 1392T685 1417Q758 1417 819 1398T926 1343T996 1254T1021 1133Q1021 1058 988 1000T899 895T769 812T612 741Q674 627 747 527T905 329Q966 419 1006 518T1076 739L1221 696Q1186 557 1133 444T1009 227Q1062 173
1115 151T1217 129Q1249 129 1278 132T1334 145V10Q1306 -1 1269 -6T1193 -12ZM869 1133Q869 1170 856 1200T818 1251T760 1284T683 1296Q587 1296 537 1245T487 1102Q487 1043 505 979T552 858Q617 884 675 911T776 971T844 1043T869 1133ZM795 217Q706 322 624
437T476 674Q363 626 302 552T240 373Q240 318 257 271T311 188T401 132T529 111Q573 111 612 120T686 145T747 179T795 217Z" />
<glyph unicode="&apos;" glyph-name="quotesingle" horiz-adv-x="391" d="M266 966H125L104 1409H288L266 966Z" />
<glyph unicode="(" glyph-name="parenleft" horiz-adv-x="682" d="M127 532Q127 671 148 798T214 1042T329 1269T496 1484H670Q576 1379 508 1269T395 1041T330 796T308 530Q308 391 329 264T395 19T507 -209T670 -424H496Q399 -319 329 -209T214 18T148 261T127
528V532Z" />
<glyph unicode=")" glyph-name="parenright" horiz-adv-x="682" d="M555 528Q555 388 534 262T468 18T353 -209T186 -424H12Q106 -319 174 -209T287 19T352 264T374 530Q374 669 353 796T287 1040T175 1268T12 1484H186Q283 1379 353 1269T468 1042T534 798T555 532V528Z" />
<glyph unicode="*" glyph-name="asterisk" horiz-adv-x="797" d="M456 1114L720 1217L765 1085L483 1012L668 762L549 690L399 948L243 692L124 764L313 1012L33 1085L78 1219L345 1112L333 1409H469L456 1114Z" />
<glyph unicode="+" glyph-name="plus" horiz-adv-x="1196" d="M671 608V180H524V608H100V754H524V1182H671V754H1095V608H671Z" />
<glyph unicode="," glyph-name="comma" horiz-adv-x="569" d="M385 219V51Q385 -2 381 -45T366 -126T342 -197T307 -262H184Q229 -197 253 -131T278 0H190V219H385Z" />
<glyph unicode="-" glyph-name="hyphen" horiz-adv-x="682" d="M91 464V624H591V464H91Z" />
<glyph unicode="." glyph-name="period" horiz-adv-x="569" d="M187 0V219H382V0H187Z" />
<glyph unicode="/" glyph-name="slash" horiz-adv-x="569" d="M0 -20L411 1484H569L162 -20H0Z" />
<glyph unicode="0" glyph-name="zero" horiz-adv-x="1139" d="M1059 705Q1059 502 1021 364T916 140T759 17T567 -20Q464 -20 375 17T221 139T118 362T80 705Q80 918 117 1057T221 1280T377 1396T573 1430Q674 1430 762 1397T917 1280T1021 1058T1059 705ZM876
705Q876 873 856 984T797 1162T702 1256T573 1284Q497 1284 439 1256T342 1162T282 984T262 705Q262 543 282 432T342 254T439 157T569 127Q640 127 697 156T793 253T854 432T876 705Z" />
<glyph unicode="1" glyph-name="one" horiz-adv-x="1139" d="M156 0V153H515V1237L197 1010V1180L530 1409H696V153H1039V0H156Z" />
<glyph unicode="2" glyph-name="two" horiz-adv-x="1139" d="M103 0V127Q154 244 227 333T382 495T542 630T686 754T789 884T829 1038Q829 1098 811 1143T759 1220T678 1266T572 1282Q518 1282 471 1267T386 1222T326 1148T295 1044L111 1061Q120 1137 153 1204T244
1321T383 1401T572 1430Q677 1430 759 1405T897 1331T984 1210T1014 1044Q1014 973 989 909T921 787T822 675T705 570T582 468T466 366T368 263T301 153H1036V0H103Z" />
<glyph unicode="3" glyph-name="three" horiz-adv-x="1139" d="M1049 389Q1049 292 1018 216T926 88T776 8T571 -20Q440 -20 351 12T203 98T116 220T78 362L264 379Q272 323 293 277T352 198T443 147T571 129Q707 129 784 196T862 395Q862 473 828 520T742 594T630
630T518 639H416V795H514Q565 795 620 805T720 843T795 918T825 1038Q825 1151 759 1216T561 1282Q442 1282 369 1221T283 1049L102 1063Q113 1156 153 1225T254 1339T395 1407T563 1430Q681 1430 766 1401T905 1321T984 1202T1010 1057Q1010 995 993 941T940 844T849
770T715 723V719Q800 710 863 681T967 607T1028 507T1049 389Z" />
<glyph unicode="4" glyph-name="four" horiz-adv-x="1139" d="M881 319V0H711V319H47V459L692 1409H881V461H1079V319H881ZM711 1206Q709 1201 701 1187T683 1154T663 1118T644 1087L283 555Q278 547 269 534T249 508T229 481T213 461H711V1206Z" />
<glyph unicode="5" glyph-name="five" horiz-adv-x="1139" d="M1053 459Q1053 353 1021 265T926 114T770 15T553 -20Q442 -20 360 6T220 77T130 184T82 315L264 336Q275 296 295 259T349 192T434 145T557 127Q627 127 684 148T781 212T844 315T866 455Q866 520
845 574T785 668T690 730T561 752Q516 752 478 744T408 722T349 690T299 651H123L170 1409H971V1256H334L307 809Q355 846 427 872T598 899Q703 899 787 867T930 777T1021 637T1053 459Z" />
<glyph unicode="6" glyph-name="six" horiz-adv-x="1139" d="M1049 461Q1049 355 1020 267T933 115T790 16T594 -20Q471 -20 379 27T226 162T135 379T104 672Q104 860 138 1002T238 1239T396 1382T608 1430Q680 1430 743 1415T857 1367T948 1278T1010 1143L838
1112Q810 1203 749 1243T606 1284Q532 1284 472 1249T370 1145T306 970T283 725Q332 816 421 863T625 911Q721 911 799 880T932 791T1018 649T1049 461ZM866 453Q866 526 848 585T794 685T705 749T582 772Q533 772 483 758T393 711T327 625T301 496Q301 418 321
351T378 233T469 154T588 125Q653 125 704 147T792 212T847 316T866 453Z" />
<glyph unicode="7" glyph-name="seven" horiz-adv-x="1139" d="M1036 1263Q930 1101 841 952T688 651T589 340T553 0H365Q365 169 405 331T513 650T671 958T862 1256H105V1409H1036V1263Z" />
<glyph unicode="8" glyph-name="eight" horiz-adv-x="1139" d="M1050 393Q1050 303 1022 228T935 97T785 11T570 -20Q446 -20 356 11T206 96T118 226T89 391Q89 468 112 528T175 631T265 701T370 737V741Q311 755 265 786T187 860T139 957T122 1069Q122 1143 150
1208T235 1323T374 1401T566 1430Q681 1430 765 1401T905 1323T988 1207T1015 1067Q1015 1009 999 956T951 860T873 786T765 743V739Q826 729 878 703T968 633T1028 529T1050 393ZM828 1057Q828 1110 815 1154T770 1229T689 1278T566 1296Q495 1296 446 1279T366
1230T320 1154T306 1057Q306 1015 317 971T357 891T437 832T568 809Q653 809 704 832T783 891T819 971T828 1057ZM863 410Q863 461 849 508T801 592T710 651T566 674Q487 674 432 652T342 592T291 507T275 406Q275 341 291 288T342 196T434 136T572 115Q654 115
710 136T800 195T848 288T863 410Z" />
<glyph unicode="9" glyph-name="nine" horiz-adv-x="1139" d="M1042 733Q1042 545 1007 404T905 168T745 27T532 -20Q451 -20 386 -4T270 48T183 139T125 274L297 301Q325 210 384 168T535 125Q608 125 668 159T771 263T838 436T864 680Q843 633 807 596T724 534T623
495T514 481Q418 481 341 515T209 612T126 761T96 956Q96 1065 127 1153T219 1302T366 1397T565 1430Q800 1430 921 1256T1042 733ZM846 907Q846 985 828 1054T773 1174T683 1254T559 1284Q494 1284 442 1261T354 1196T299 1092T279 956Q279 885 296 824T349 719T436
649T557 623Q607 623 658 640T751 692T819 780T846 907Z" />
<glyph unicode=":" glyph-name="colon" horiz-adv-x="569" d="M187 875V1082H382V875H187ZM187 0V207H382V0H187Z" />
<glyph unicode=";" glyph-name="semicolon" horiz-adv-x="569" d="M385 207V51Q385 -2 381 -45T366 -126T342 -197T307 -262H184Q229 -197 253 -131T278 0H190V207H385ZM190 875V1082H385V875H190Z" />
<glyph unicode="&lt;" glyph-name="less" horiz-adv-x="1196" d="M101 571V776L1096 1194V1040L238 674L1096 307V154L101 571Z" />
<glyph unicode="=" glyph-name="equal" horiz-adv-x="1196" d="M100 856V1004H1095V856H100ZM100 344V492H1095V344H100Z" />
<glyph unicode="&gt;" glyph-name="greater" horiz-adv-x="1196" d="M101 154V307L959 674L101 1040V1194L1096 776V571L101 154Z" />
<glyph unicode="?" glyph-name="question" horiz-adv-x="1139" d="M1063 1032Q1063 961 1045 907T995 811T925 735T844 671T764 612T693 549T642 474T621 377H446Q448 446 467 498T518 590T588 661T667 721T745 778T814 842T862 921T881 1024Q881 1083 860 1129T801
1206T708 1254T586 1270Q446 1270 364 1200T268 1008L84 1020Q95 1104 128 1178T222 1309T372 1397T584 1430Q698 1430 787 1402T937 1323T1031 1197T1063 1032ZM438 0V201H633V0H438Z" />
<glyph unicode="@" glyph-name="at" horiz-adv-x="2079" d="M1902 755Q1902 611 1869 492T1776 286T1635 152T1455 104Q1399 104 1360 117T1295 154T1259 210T1248 280Q1248 295 1249 316T1251 350H1245Q1221 305 1187 261T1106 182T1001 126T871 104Q787 104
725 133T622 213T561 335T541 489Q541 609 576 719T678 914T836 1050T1043 1101Q1103 1101 1151 1088T1235 1050T1299 993T1344 919H1350L1389 1079H1545L1429 573Q1410 489 1401 429T1392 320Q1392 272 1413 249T1473 226Q1535 226 1588 266T1681 378T1743 545T1766
753Q1766 882 1725 993T1603 1185T1403 1312T1128 1358Q994 1358 881 1326T675 1236T514 1098T397 921T326 716T302 491Q302 350 345 231T470 27T674 -107T954 -155Q1059 -155 1150 -139T1317 -98T1453 -46T1557 7L1612 -105Q1562 -135 1495 -166T1344 -224T1163
-266T954 -283Q764 -283 617 -226T368 -65T214 180T161 491Q161 630 192 758T283 996T427 1196T619 1350T854 1449T1126 1484Q1327 1484 1473 1425T1714 1266T1856 1034T1902 755ZM1296 747Q1296 797 1279 839T1231 911T1155 957T1054 974Q968 974 903 932T795
820T729 665T706 491Q706 371 753 303T900 235Q969 235 1029 266T1137 348T1220 465T1273 602Q1282 638 1289 678T1296 747Z" />
<glyph unicode="A" glyph-name="A" horiz-adv-x="1366" d="M1167 0L1006 412H364L202 0H4L579 1409H796L1362 0H1167ZM768 1026Q752 1066 738 1107T712 1181T694 1237T685 1265Q683 1260 676 1237T658 1180T632 1105T602 1024L422 561H949L768 1026Z" />
<glyph unicode="B" glyph-name="B" horiz-adv-x="1366" d="M1258 397Q1258 290 1216 215T1103 92T938 22T740 0H168V1409H680Q797 1409 889 1390T1045 1328T1142 1222T1176 1067Q1176 1008 1160 956T1110 862T1026 789T908 743Q993 733 1058 704T1168 630T1235
526T1258 397ZM984 1044Q984 1158 906 1207T680 1256H359V810H680Q764 810 822 826T916 873T968 947T984 1044ZM1065 412Q1065 479 1041 526T970 603T860 647T715 661H359V153H730Q803 153 864 165T970 207T1040 287T1065 412Z" />
<glyph unicode="C" glyph-name="C" horiz-adv-x="1479" d="M792 1274Q672 1274 580 1234T425 1120T330 942T298 711Q298 584 332 479T431 297T589 179T800 137Q882 137 949 158T1071 219T1169 311T1245 430L1401 352Q1363 273 1307 205T1176 87T1005 9T791 -20Q620
-20 492 34T277 186T147 418T104 711Q104 876 149 1009T282 1235T498 1379T790 1430Q1015 1430 1166 1342T1388 1081L1207 1021Q1187 1071 1153 1116T1068 1197T949 1253T792 1274Z" />
<glyph unicode="D" glyph-name="D" horiz-adv-x="1479" d="M1381 719Q1381 543 1328 409T1183 184T966 47T695 0H168V1409H634Q797 1409 934 1369T1171 1244T1325 1029T1381 719ZM1189 719Q1189 862 1148 963T1033 1130T856 1225T630 1256H359V153H673Q784 153
878 189T1042 296T1150 473T1189 719Z" />
<glyph unicode="E" glyph-name="E" horiz-adv-x="1366" d="M168 0V1409H1237V1253H359V801H1177V647H359V156H1278V0H168Z" />
<glyph unicode="F" glyph-name="F" horiz-adv-x="1251" d="M359 1253V729H1145V571H359V0H168V1409H1169V1253H359Z" />
<glyph unicode="G" glyph-name="G" horiz-adv-x="1593" d="M103 711Q103 876 147 1009T280 1235T500 1379T804 1430Q934 1430 1032 1407T1202 1341T1324 1237T1409 1098L1227 1044Q1201 1096 1165 1138T1076 1211T956 1257T799 1274Q671 1274 577 1234T420 1120T328
942T297 711Q297 584 330 479T428 297T589 178T813 135Q896 135 966 149T1092 185T1192 235T1264 291V545H843V705H1440V219Q1393 171 1330 128T1187 51T1014 -1T813 -20Q635 -20 502 34T281 186T148 418T103 711Z" />
<glyph unicode="H" glyph-name="H" horiz-adv-x="1479" d="M1121 0V653H359V0H168V1409H359V813H1121V1409H1312V0H1121Z" />
<glyph unicode="I" glyph-name="I" horiz-adv-x="569" d="M189 0V1409H380V0H189Z" />
<glyph unicode="J" glyph-name="J" horiz-adv-x="1024" d="M457 -20Q286 -20 177 69T32 350L219 381Q229 316 252 270T307 193T378 149T458 135Q562 135 622 206T682 416V1253H411V1409H872V420Q872 319 844 238T763 100T632 11T457 -20Z" />
<glyph unicode="K" glyph-name="K" horiz-adv-x="1366" d="M1106 0L543 680L359 540V0H168V1409H359V703L1038 1409H1263L663 797L1343 0H1106Z" />
<glyph unicode="L" glyph-name="L" horiz-adv-x="1139" d="M168 0V1409H359V156H1071V0H168Z" />
<glyph unicode="M" glyph-name="M" horiz-adv-x="1706" d="M1366 0V940Q1366 991 1367 1044T1370 1141Q1372 1192 1375 1240Q1361 1189 1346 1139Q1333 1096 1318 1048T1287 960L923 0H789L420 960Q414 975 408 995T394 1037T379 1083T364 1130Q347 1183 331 1240Q332
1184 334 1129Q336 1082 337 1031T338 940V0H168V1409H419L794 432Q801 412 811 381T830 316T846 254T857 208Q860 224 868 254T886 317T907 381T925 432L1293 1409H1538V0H1366Z" />
<glyph unicode="N" glyph-name="N" horiz-adv-x="1479" d="M1082 0L328 1200Q330 1151 333 1103Q335 1062 336 1017T338 936V0H168V1409H390L1152 201Q1149 250 1146 299Q1144 341 1142 390T1140 485V1409H1312V0H1082Z" />
<glyph unicode="O" glyph-name="O" horiz-adv-x="1593" d="M1495 711Q1495 546 1448 411T1310 180T1090 32T795 -20Q621 -20 490 34T272 186T141 418T97 711Q97 876 143 1009T278 1235T497 1379T797 1430Q965 1430 1095 1379T1314 1234T1449 1007T1495 711ZM1300
711Q1300 838 1268 942T1172 1120T1014 1234T797 1274Q671 1274 576 1234T418 1120T323 942T291 711Q291 584 323 479T419 297T577 178T795 135Q927 135 1022 178T1179 297T1270 480T1300 711Z" />
<glyph unicode="P" glyph-name="P" horiz-adv-x="1366" d="M1258 985Q1258 893 1228 814T1137 676T985 583T773 549H359V0H168V1409H761Q886 1409 979 1379T1134 1293T1227 1159T1258 985ZM1066 983Q1066 1117 984 1186T738 1256H359V700H746Q911 700 988 773T1066 983Z" />
<glyph unicode="Q" glyph-name="Q" horiz-adv-x="1593" d="M1495 711Q1495 562 1457 439T1346 222T1168 71T928 -6Q949 -70 975 -115T1036 -188T1111 -230T1204 -244Q1232 -244 1264 -240T1319 -231V-365Q1281 -374 1236 -380T1141 -387Q1055 -387 991 -362T879
-289T795 -172T733 -16Q575 -8 456 49T257 203T137 429T97 711Q97 876 143 1009T278 1235T497 1379T797 1430Q965 1430 1095 1379T1314 1234T1449 1007T1495 711ZM1300 711Q1300 838 1268 942T1172 1120T1014 1234T797 1274Q671 1274 576 1234T418 1120T323 942T291
711Q291 584 323 479T419 297T577 178T795 135Q927 135 1022 178T1179 297T1270 480T1300 711Z" />
<glyph unicode="R" glyph-name="R" horiz-adv-x="1479" d="M1164 0L798 585H359V0H168V1409H831Q951 1409 1043 1382T1199 1302T1295 1175T1328 1006Q1328 939 1309 874T1247 755T1140 662T984 607L1384 0H1164ZM1136 1004Q1136 1068 1114 1115T1050 1193T948
1240T812 1256H359V736H820Q902 736 962 756T1060 813T1117 898T1136 1004Z" />
<glyph unicode="S" glyph-name="S" horiz-adv-x="1366" d="M1272 389Q1272 300 1238 225T1131 96T950 11T690 -20Q427 -20 280 72T93 338L278 375Q292 320 321 275T399 198T522 147T697 129Q782 129 853 143T975 188T1054 265T1083 379Q1083 448 1052 491T963
562T827 609T652 650Q593 663 534 678T420 715T317 766T234 835T179 929T159 1053Q159 1153 199 1224T312 1342T482 1409T694 1430Q825 1430 918 1410T1075 1348T1177 1247T1239 1106L1051 1073Q1037 1124 1011 1164T941 1231T837 1272T692 1286Q594 1286 528 1269T421
1221T363 1151T345 1063Q345 1000 376 960T462 892T587 847T738 811Q803 796 867 781T991 744T1101 693T1191 622T1250 523T1272 389Z" />
<glyph unicode="T" glyph-name="T" horiz-adv-x="1251" d="M720 1253V0H530V1253H46V1409H1204V1253H720Z" />
<glyph unicode="U" glyph-name="U" horiz-adv-x="1479" d="M731 -20Q615 -20 511 11T329 107T204 273T158 512V1409H349V528Q349 421 377 347T457 225T577 157T730 135Q812 135 885 157T1013 227T1099 352T1131 541V1409H1321V530Q1321 389 1275 286T1148 114T961
13T731 -20Z" />
<glyph unicode="V" glyph-name="V" horiz-adv-x="1366" d="M782 0H584L9 1409H210L600 417Q615 372 630 328T657 248Q671 207 684 168Q696 205 710 246Q722 281 736 325T768 417L1156 1409H1357L782 0Z" />
<glyph unicode="W" glyph-name="W" horiz-adv-x="1933" d="M1511 0H1283L1039 895Q1028 933 1016 985T993 1084Q981 1139 969 1196Q956 1138 944 1083Q933 1035 921 984T898 895L652 0H424L9 1409H208L461 514Q478 451 493 389T520 278Q533 220 544 168Q559 237
575 304Q582 332 589 363T603 424T618 481T632 532L877 1409H1060L1305 532Q1311 509 1318 482T1333 425T1348 364T1362 305Q1378 238 1393 168Q1394 168 1402 202T1422 289T1448 401T1478 514L1727 1409H1926L1511 0Z" />
<glyph unicode="X" glyph-name="X" horiz-adv-x="1366" d="M1112 0L689 616L257 0H46L582 732L87 1409H298L690 856L1071 1409H1282L800 739L1323 0H1112Z" />
<glyph unicode="Y" glyph-name="Y" horiz-adv-x="1366" d="M777 584V0H587V584L45 1409H255L684 738L1111 1409H1321L777 584Z" />
<glyph unicode="Z" glyph-name="Z" horiz-adv-x="1251" d="M1187 0H65V143L923 1253H138V1409H1140V1270L282 156H1187V0Z" />
<glyph unicode="[" glyph-name="bracketleft" horiz-adv-x="569" d="M146 -425V1484H553V1355H320V-296H553V-425H146Z" />
<glyph unicode="\" glyph-name="backslash" horiz-adv-x="569" d="M407 -20L0 1484H158L569 -20H407Z" />
<glyph unicode="]" glyph-name="bracketright" horiz-adv-x="569" d="M16 -425V-296H249V1355H16V1484H423V-425H16Z" />
<glyph unicode="^" glyph-name="asciicircum" horiz-adv-x="961" d="M787 673L478 1306L172 673H10L378 1409H581L951 673H787Z" />
<glyph unicode="_" glyph-name="underscore" horiz-adv-x="1139" d="M-31 -407V-277H1162V-407H-31Z" />
<glyph unicode="`" glyph-name="grave" horiz-adv-x="682" d="M436 1201L106 1479V1508H313L530 1221V1201H436Z" />
<glyph unicode="a" glyph-name="a" horiz-adv-x="1139" d="M414 -20Q251 -20 169 66T87 302Q87 409 127 477T233 585T383 639T554 656L797 660V719Q797 786 783 833T740 909T668 951T565 965Q513 965 471 958T398 931T348 878T323 793L135 810Q145 874 173 927T252
1020T381 1080T569 1102Q773 1102 876 1009T979 738V272Q979 192 1000 152T1080 111Q1095 111 1110 113T1139 118V6Q1105 -2 1072 -6T1000 -10Q949 -10 913 3T853 44T818 112T803 207H797Q768 155 734 113T653 42T549 -4T414 -20ZM455 115Q541 115 605 146T712
227T776 334T797 445V534L600 530Q534 529 475 521T370 487T299 417T272 299Q272 211 319 163T455 115Z" />
<glyph unicode="b" glyph-name="b" horiz-adv-x="1139" d="M1053 546Q1053 -20 655 -20Q532 -20 451 24T318 168H316Q316 142 315 114T312 62T309 21T306 0H132Q133 9 134 30T136 82T137 148T138 223V1484H318V1061Q318 1031 318 1004T316 955Q315 930 314 908H318Q368
1012 450 1057T655 1102Q860 1102 956 964T1053 546ZM864 540Q864 652 850 732T805 863T726 939T609 963Q538 963 484 940T393 866T337 732T318 529Q318 413 337 334T392 206T483 135T607 113Q673 113 721 136T801 210T848 342T864 540Z" />
<glyph unicode="c" glyph-name="c" horiz-adv-x="1024" d="M275 546Q275 453 288 375T334 241T418 153T548 122Q644 122 708 174T788 334L970 322Q961 255 931 193T850 84T724 9T553 -20Q426 -20 337 23T193 141T112 319T87 542Q87 651 105 734T155 880T232 985T327
1053T436 1090T551 1102Q642 1102 713 1077T835 1009T919 906T964 779L779 765Q765 855 708 908T546 961Q469 961 418 936T334 859T289 729T275 546Z" />
<glyph unicode="d" glyph-name="d" horiz-adv-x="1139" d="M821 174Q771 70 689 25T484 -20Q279 -20 183 118T86 536Q86 1102 484 1102Q607 1102 689 1057T821 914H823Q823 924 823 945T822 990T821 1035T821 1065V1484H1001V223Q1001 184 1001 148T1003 82T1005
31T1007 0H835Q833 10 832 28T829 71T826 121T825 174H821ZM275 542Q275 430 289 350T334 219T413 143T530 119Q601 119 655 142T746 216T802 351T821 554Q821 669 802 748T746 877T656 947T532 969Q466 969 418 946T338 872T291 740T275 542Z" />
<glyph unicode="e" glyph-name="e" horiz-adv-x="1139" d="M276 503Q276 418 293 347T347 224T441 144T578 115Q695 115 765 162T861 281L1019 236Q1002 191 972 146T890 64T763 4T578 -20Q338 -20 213 123T87 548Q87 700 125 805T229 977T383 1072T571 1102Q707
1102 798 1058T945 937T1024 754T1048 527V503H276ZM862 641Q847 812 775 890T568 969Q523 969 474 955T382 903T311 803T278 641H862Z" />
<glyph unicode="f" glyph-name="f" horiz-adv-x="569" d="M361 951V0H181V951H29V1082H181V1204Q181 1263 192 1313T232 1401T313 1460T445 1482Q477 1482 511 1479T572 1470V1333Q555 1336 533 1338T492 1341Q452 1341 427 1330T387 1299T367 1248T361 1179V1082H572V951H361Z"
/>
<glyph unicode="g" glyph-name="g" horiz-adv-x="1139" d="M548 -425Q455 -425 383 -406T260 -352T177 -267T131 -158L312 -132Q330 -207 391 -247T553 -288Q614 -288 664 -271T749 -217T803 -119T822 27V201H820Q800 160 771 123T699 56T600 10T472 -8Q369 -8
296 26T176 130T108 301T86 539Q86 669 107 773T177 949T303 1060T492 1099Q607 1099 691 1047T822 897H824Q824 922 825 953T828 1011T832 1059T836 1082H1007Q1006 1073 1005 1052T1003 1000T1002 934T1001 858V31Q1001 -196 890 -310T548 -425ZM822 541Q822
654 798 734T733 866T642 941T536 965Q467 965 418 941T336 866T288 734T272 541Q272 424 287 345T335 216T416 146T533 125Q587 125 638 148T731 221T797 350T822 541Z" />
<glyph unicode="h" glyph-name="h" horiz-adv-x="1139" d="M317 897Q347 952 382 990T459 1054T551 1090T663 1102Q767 1102 833 1074T938 996T991 875T1006 721V0H825V686Q825 755 817 807T784 893T716 945T602 963Q538 963 487 940T399 875T342 773T322 638V0H142V1484H322V1098Q322
1065 321 1032T319 971T316 924T314 897H317Z" />
<glyph unicode="i" glyph-name="i" horiz-adv-x="455" d="M137 1312V1484H317V1312H137ZM137 0V1082H317V0H137Z" />
<glyph unicode="j" glyph-name="j" horiz-adv-x="455" d="M137 1312V1484H317V1312H137ZM317 -134Q317 -196 307 -249T269 -341T196 -402T77 -425Q43 -425 11 -423T-50 -416V-277Q-37 -279 -19 -281T12 -283Q50 -283 74 -273T113 -242T132 -187T137 -107V1082H317V-134Z" />
<glyph unicode="k" glyph-name="k" horiz-adv-x="1024" d="M816 0L450 494L318 385V0H138V1484H318V557L793 1082H1004L565 617L1027 0H816Z" />
<glyph unicode="l" glyph-name="l" horiz-adv-x="455" d="M138 0V1484H318V0H138Z" />
<glyph unicode="m" glyph-name="m" horiz-adv-x="1706" d="M768 0V686Q768 765 758 818T725 903T663 949T570 963Q513 963 467 941T389 876T339 771T321 627V0H142V851Q142 885 142 922T140 993T138 1051T136 1082H306Q307 1077 308 1055T310 1005T313 947T314
897H317Q341 944 369 982T434 1046T520 1087T633 1102Q756 1102 827 1053T927 897H930Q954 944 984 982T1054 1046T1144 1087T1258 1102Q1340 1102 1399 1080T1497 1012T1553 894T1571 721V0H1393V686Q1393 765 1383 818T1350 903T1288 949T1195 963Q1138 963 1092
942T1014 878T964 773T946 627V0H768Z" />
<glyph unicode="n" glyph-name="n" horiz-adv-x="1139" d="M825 0V686Q825 765 814 818T776 903T708 949T602 963Q538 963 487 941T399 876T342 771T322 627V0H142V851Q142 885 142 922T140 993T138 1051T136 1082H306Q307 1077 308 1055T310 1005T313 947T314
897H317Q343 944 374 982T446 1046T540 1087T663 1102Q753 1102 818 1080T925 1012T986 894T1006 721V0H825Z" />
<glyph unicode="o" glyph-name="o" horiz-adv-x="1139" d="M1053 542Q1053 258 928 119T565 -20Q452 -20 363 14T213 118T119 293T86 542Q86 1102 571 1102Q697 1102 788 1067T938 962T1025 787T1053 542ZM864 542Q864 668 845 750T788 881T696 949T574 969Q505
969 450 949T355 879T296 747T275 542Q275 416 297 334T357 202T448 133T563 113Q632 113 688 132T783 201T843 333T864 542Z" />
<glyph unicode="p" glyph-name="p" horiz-adv-x="1139" d="M1053 546Q1053 423 1033 319T967 140T844 23T655 -20Q539 -20 452 24T319 168H314Q315 166 315 150T316 110T317 57T318 -2V-425H138V861Q138 900 138 936T136 1001T134 1052T132 1082H306Q307 1079
308 1061T311 1018T314 963T316 908H320Q345 960 377 996T450 1056T541 1090T655 1101Q767 1101 843 1061T966 949T1033 774T1053 546ZM864 542Q864 642 852 720T811 852T732 934T609 962Q549 962 496 945T404 880T341 748T318 528Q318 413 337 334T392 205T483
135T607 113Q682 113 731 142T810 226T852 360T864 542Z" />
<glyph unicode="q" glyph-name="q" horiz-adv-x="1139" d="M484 -20Q278 -20 182 119T86 536Q86 818 184 960T484 1102Q551 1102 602 1090T694 1055T765 996T821 914H823Q823 939 824 969T827 1027T831 1073T835 1096H1008Q1006 1079 1004 1007T1001 801V-425H821V14Q821
40 821 68T823 121Q824 149 825 178H823Q797 127 766 90T693 28T601 -8T484 -20ZM821 554Q821 672 801 752T743 880T652 948T532 969Q463 969 414 944T335 866T290 733T275 542Q275 434 288 354T332 222T411 145T530 119Q590 119 643 137T735 204T798 337T821 554Z"
/>
<glyph unicode="r" glyph-name="r" horiz-adv-x="682" d="M142 0V830Q142 864 142 899T140 968T138 1030T136 1082H306Q307 1059 308 1030T311 969T313 910T314 861H318Q337 923 358 968T409 1043T478 1087T575 1102Q597 1102 617 1099T648 1092V927Q630 932 606
934T552 937Q490 937 447 909T376 832T335 714T322 564V0H142Z" />
<glyph unicode="s" glyph-name="s" horiz-adv-x="1024" d="M950 299Q950 223 921 164T835 64T698 2T511 -20Q417 -20 342 -6T209 41T114 125T57 254L216 285Q239 198 311 158T511 117Q569 117 617 125T701 152T755 204T775 285Q775 334 752 365T688 418T589 454T460
489Q395 506 331 527T216 582T132 668T100 796Q100 944 205 1021T513 1099Q692 1099 797 1036T931 834L769 814Q760 856 736 884T678 930T602 955T513 963Q391 963 333 926T275 814Q275 770 296 742T356 694T449 660T568 629Q611 618 656 606T743 576T823 535T889
478T933 401T950 299Z" />
<glyph unicode="t" glyph-name="t" horiz-adv-x="569" d="M554 8Q513 -3 471 -9T372 -16Q156 -16 156 229V951H31V1082H163L216 1324H336V1082H536V951H336V268Q336 190 361 159T450 127Q476 127 500 131T554 141V8Z" />
<glyph unicode="u" glyph-name="u" horiz-adv-x="1139" d="M314 1082V396Q314 317 325 264T363 179T431 133T537 119Q601 119 652 141T740 206T797 311T817 455V1082H997V231Q997 197 997 160T999 89T1001 31T1003 0H833Q832 5 831 27T829 77T826 135T825 185H822Q796
138 765 100T693 36T599 -5T476 -20Q386 -20 321 2T214 70T153 188T133 361V1082H314Z" />
<glyph unicode="v" glyph-name="v" horiz-adv-x="1024" d="M613 0H400L7 1082H199L437 378Q444 356 453 325T473 259T491 194T506 141Q512 162 521 193T541 258T561 322T580 376L826 1082H1017L613 0Z" />
<glyph unicode="w" glyph-name="w" horiz-adv-x="1479" d="M1174 0H965L792 698Q784 725 776 765T759 843Q749 887 740 934Q731 889 721 845Q713 807 704 766T686 694L508 0H300L-3 1082H175L358 347Q365 324 372 291T386 225Q393 188 401 149Q409 187 418 223Q426
254 434 286T448 339L644 1082H837L1026 339Q1033 313 1041 280T1056 218Q1064 184 1072 149Q1080 187 1088 223Q1095 254 1102 287T1117 347L1308 1082H1484L1174 0Z" />
<glyph unicode="x" glyph-name="x" horiz-adv-x="1024" d="M801 0L510 444L217 0H23L408 556L41 1082H240L510 661L778 1082H979L612 558L1002 0H801Z" />
<glyph unicode="y" glyph-name="y" horiz-adv-x="1024" d="M604 0Q566 -98 527 -176T438 -310T329 -395T191 -425Q157 -425 128 -423T67 -414V-279Q86 -282 110 -283T151 -285Q230 -285 298 -226T417 -38L434 5L5 1082H197L425 484Q435 457 450 412T481 322T509
241T523 196Q526 207 537 239T563 312T593 393T618 464L830 1082H1020L604 0Z" />
<glyph unicode="z" glyph-name="z" horiz-adv-x="1024" d="M49 0V137L710 943H89V1082H913V945L251 139H950V0H49Z" />
<glyph unicode="{" glyph-name="braceleft" horiz-adv-x="684" d="M513 -425Q448 -425 399 -405T316 -346T266 -254T249 -132V229Q249 292 235 336T193 408T125 450T34 466V593Q85 595 125 609T192 651T234 723T249 829V1191Q249 1332 315 1408T513 1484H648V1355H585Q494
1355 456 1302T417 1140V784Q417 734 402 692T361 618T300 564T223 532V530Q266 520 301 498T362 444T402 369T417 276V-81Q417 -187 455 -241T585 -296H648V-425H513Z" />
<glyph unicode="|" glyph-name="bar" horiz-adv-x="532" d="M183 -434V1484H349V-434H183Z" />
<glyph unicode="}" glyph-name="braceright" horiz-adv-x="684" d="M94 -296Q185 -296 224 -242T264 -81V276Q264 327 278 369T317 443T378 498T457 530V532Q415 542 380 564T319 618T279 692T264 784V1140Q264 1248 225 1301T94 1355H34V1484H166Q297 1484 363
1408T430 1191V829Q430 767 444 723T486 651T554 609T647 593V466Q595 464 555 450T487 408T445 336T430 229V-132Q430 -200 413 -254T363 -346T281 -404T166 -425H34V-296H94Z" />
<glyph unicode="~" glyph-name="asciitilde" horiz-adv-x="1196" d="M844 553Q775 553 703 575T557 623Q428 668 340 668Q302 668 270 662T207 645T149 617T92 580V723Q142 761 208 784T355 807Q395 807 435 801T513 784T589 761T664 735Q685 727 710 720T760
705T811 694T860 690Q929 690 990 715T1104 782V633Q1072 610 1043 595T983 571T918 557T844 553Z" />
</font>
<font id="PT Sans Caption" horiz-adv-x="592" ><font-face
    font-family="PT Sans Caption"
    units-per-em="1000"
    panose-1="2 11 6 3 2 2 3 2 2 4"
    ascent="1018"
    descent="-276"
    alphabetic="0" />
<missing-glyph horiz-adv-x="750" d="M50 700H700V0H50V700ZM570 620L375 403L180 620L130 570L327 350L130 130L180 80L375 297L570 80L620 130L422 350L620 570L570 620ZM129 27H137V39H141Q147 39 152 41T157 51Q157 59 152 61T140 63H129V27ZM141 57Q149 57
149 52Q149 47 147 47T140 46H137V57H141ZM189 63H158V57H170V27H177V57H189V63ZM222 37Q222 33 215 33Q208 33 206 35L203 28Q205 28 208 27T216 26Q230 26 230 38Q230 47 221 48T212 54Q212 57 218 57Q223 57 227 55L229 62Q223 64 218 64Q204 64 204 53Q204
48 207 46T213 43T219 40T222 37ZM237 47Q241 49 246 49Q251 49 251 45V43Q250 43 249 43T246 44Q234 44 234 34Q234 26 242 26Q248 26 251 31L253 27H259Q258 29 258 34V45Q258 55 248 55Q244 55 241 54T235 52L237 47ZM245 32Q241 32 241 36Q241 40 246 40Q248
40 249 40T251 39V36Q249 32 245 32ZM292 27V43Q292 55 283 55Q276 55 273 50L271 54H266V27H273V44Q275 48 279 48Q284 48 284 42V27H292ZM297 28Q301 26 307 26Q318 26 318 35Q318 40 316 41T310 44Q305 46 305 47Q305 49 308 49Q312 49 316 47L318 53Q314 55
308 55Q298 55 298 46Q298 41 301 40T306 37Q311 37 311 34Q311 32 308 32Q303 32 299 34L297 28ZM338 42Q338 21 358 21Q378 21 378 42Q378 62 358 62Q350 62 344 57T338 42ZM344 42Q344 57 358 57Q372 57 372 42Q372 27 358 27Q344 27 344 42ZM364 38Q362 37
360 37Q356 37 356 42Q356 46 360 46H363L365 50Q361 52 358 52Q349 52 349 42Q349 31 358 31Q363 31 365 33L364 38ZM399 27H407V39H411Q417 39 422 41T427 51Q427 59 422 61T410 63H399V27ZM411 57Q419 57 419 52Q419 47 417 47T410 46H407V57H411ZM432 47Q436
49 441 49Q446 49 446 45V43Q445 43 444 43T441 44Q428 44 428 34Q428 26 437 26Q443 26 446 31L448 27H454Q453 29 453 34V45Q453 55 443 55Q439 55 436 54T430 52L432 47ZM440 32Q436 32 436 36Q436 40 441 40Q443 40 444 40T446 39V36Q444 32 440 32ZM478 54Q477
55 474 55Q470 55 468 50H467L466 54H460V27H468V44Q468 48 474 48H475Q476 48 476 48T477 47L478 54ZM483 47Q489 49 492 49Q497 49 497 45V43Q496 43 495 43T492 44Q479 44 479 34Q479 26 488 26Q495 26 497 31H498L499 27H505Q504 29 504 34V45Q504 55 494 55Q490
55 487 54T482 52L483 47ZM491 32Q487 32 487 36Q487 40 492 40Q494 40 495 40T497 39V36Q495 32 491 32ZM533 63H502V57H513V27H521V57H533V63ZM541 54H533L545 27Q544 22 540 22L539 23L537 17Q539 16 542 16Q547 16 552 29L562 54H554L549 39V34H548L547 39L541
54ZM565 16H573V28Q574 26 578 26Q592 26 592 41Q592 55 581 55Q576 55 572 51H571L570 54H565V16ZM579 49Q584 49 584 41Q584 32 577 32Q575 32 573 34V44Q573 49 579 49ZM618 34Q616 32 611 32Q604 32 603 38H622V44Q622 50 619 52T610 55Q596 55 596 40Q596
26 610 26Q613 26 616 27T621 29L618 34ZM610 49Q616 49 615 43H604Q604 49 610 49Z" />
<glyph unicode=" " glyph-name="space" horiz-adv-x="291" />
<glyph unicode="!" glyph-name="exclam" horiz-adv-x="331" d="M133 700H233V357L213 184H153L133 357V700ZM115 51Q115 80 133 97T182 114Q212 114 230 97T249 51Q249 24 231 6T182 -12Q152 -12 134 6T115 51Z" />
<glyph unicode="&quot;" glyph-name="quotedbl" horiz-adv-x="375" d="M98 700H190L155 502H98V700ZM228 700H320L285 502H228V700Z" />
<glyph unicode="#" glyph-name="numbersign" horiz-adv-x="594" d="M305 221H192L150 57H69L111 221H26L43 293H130L162 417H81L98 489H181L221 643H302L262 489H375L415 643H496L456 489H539L520 417H437L405 293H484L465 221H386L343 57H263L305 221ZM211 293H324L356
417H243L211 293Z" />
<glyph unicode="$" glyph-name="dollar" horiz-adv-x="594" d="M263 -13Q202 -11 155 -2T80 22L111 106Q134 94 171 84T263 71V321Q230 335 198 351T140 391T99 447T83 526Q83 604 128 651T263 710V800H342V712Q397 710 433 702T498 681L469 599Q449 609 418 617T342
628V399Q376 384 410 367T471 325T514 269T531 192Q531 109 483 58T342 -8V-100H263V-13ZM320 73Q371 79 402 105T433 182Q433 204 424 221T400 251T364 276T320 297V73ZM285 628Q227 623 204 597T181 533Q181 493 211 469T285 424V628Z" />
<glyph unicode="%" glyph-name="percent" horiz-adv-x="854" d="M74 542Q74 586 87 618T123 671T177 702T246 712Q283 712 314 703T369 673T406 621T419 542Q419 496 406 464T370 411T315 382T246 372Q209 372 178 381T123 411T87 463T74 542ZM162 542Q162 488
183 463T246 437Q286 437 308 460T331 542Q331 602 309 624T246 647Q206 647 184 625T162 542ZM473 170Q473 214 486 246T522 299T576 330T645 340Q682 340 713 331T768 301T805 249T818 170Q818 124 805 92T769 39T714 10T645 0Q608 0 577 9T522 39T486 91T473
170ZM561 170Q561 116 582 91T645 65Q685 65 707 88T730 170Q730 230 708 252T645 275Q605 275 583 253T561 170ZM704 713L762 665L190 -13L133 36L704 713Z" />
<glyph unicode="&amp;" glyph-name="ampersand" horiz-adv-x="891" d="M125 189Q125 229 140 264T180 331T239 389T310 435Q284 470 266 505T247 582Q247 606 256 629T284 671T335 701T410 713Q456 713 487 702T538 674T565 634T573 590Q573 549 539 504T427 420Q465
362 516 304T620 196Q632 208 644 226T668 265T689 307T706 349L778 312Q772 295 760 272T734 226T704 181T676 144Q698 125 715 112T748 88T778 70T807 55L751 -13Q723 1 690 24T621 79Q601 61 578 45T525 16T459 -5T380 -13Q328 -13 282 0T201 40T146 103T125
189ZM563 136Q533 164 503 197T445 262T395 325T354 378Q295 338 258 295T220 193Q220 164 234 141T271 101T326 76T393 67Q419 67 444 73T492 88T533 110T563 136ZM342 580Q342 552 354 525T388 468Q444 500 466 526T489 572Q489 604 473 622T414 641Q376 641
359 625T342 580Z" />
<glyph unicode="&apos;" glyph-name="quotesingle" horiz-adv-x="244" d="M98 700H190L155 502H98V700Z" />
<glyph unicode="(" glyph-name="parenleft" horiz-adv-x="314" d="M249 -220Q198 -172 164 -115T107 3T76 125T66 243Q66 298 75 359T107 481T164 602T252 712L310 669Q267 619 238 566T192 458T168 349T160 243Q160 195 168 140T195 30T242 -79T311 -175L249 -220Z" />
<glyph unicode=")" glyph-name="parenright" horiz-adv-x="314" d="M3 -175Q43 -132 71 -79T118 29T145 140T154 243Q154 294 147 348T122 457T76 565T4 669L62 712Q114 661 149 602T207 482T238 359T248 243Q248 187 239 126T207 4T151 -114T65 -220L3 -175Z" />
<glyph unicode="*" glyph-name="asterisk" horiz-adv-x="387" d="M144 724L172 680L191 621L212 679L239 724L293 694L264 647L214 598L288 612H341V549H290L221 563L271 513L296 472L243 441L215 486L190 549L171 489L144 444L87 475L117 520L163 563L100 549H45V612H100L168
598L118 645L89 693L144 724Z" />
<glyph unicode="+" glyph-name="plus" horiz-adv-x="554" d="M43 379H234V569H320V379H511V295H320V104H234V295H43V379Z" />
<glyph unicode="," glyph-name="comma" horiz-adv-x="225" d="M59 47Q59 73 78 89T124 106Q159 106 181 83T203 17Q203 -22 192 -50T162 -99T123 -132T80 -150L52 -104Q90 -91 109 -63T128 -5Q101 -13 80 1T59 47Z" />
<glyph unicode="-" glyph-name="hyphen" horiz-adv-x="394" d="M64 332H330V246H64V332Z" />
<glyph unicode="." glyph-name="period" horiz-adv-x="238" d="M52 51Q52 80 70 97T119 114Q149 114 167 97T186 51Q186 24 168 6T119 -12Q89 -12 71 6T52 51Z" />
<glyph unicode="/" glyph-name="slash" horiz-adv-x="396" d="M360 712L434 678L35 -140L-38 -104L360 712Z" />
<glyph unicode="0" glyph-name="zero" horiz-adv-x="594" d="M44 350Q44 525 108 619T297 713Q429 713 490 620T551 350Q551 176 486 82T296 -13Q230 -13 183 13T105 86T59 201T44 350ZM142 350Q142 289 151 238T178 148T226 89T297 67Q378 67 415 137T453 350Q453
411 445 462T419 552T370 611T297 633Q216 633 179 562T142 350Z" />
<glyph unicode="1" glyph-name="one" horiz-adv-x="594" d="M113 84H265V549L277 610L233 560L114 480L72 539L313 712H357V84H507V0H113V84Z" />
<glyph unicode="2" glyph-name="two" horiz-adv-x="594" d="M489 536Q489 485 468 432T414 325T339 220T255 120L201 77V73L273 84H506V0H65V36Q89 59 122 92T192 166T264 252T328 343T373 435T391 520Q391 567 362 598T273 629Q231 629 192 613T125 574L84 641Q125
674 177 693T292 713Q385 713 437 665T489 536Z" />
<glyph unicode="3" glyph-name="three" horiz-adv-x="594" d="M255 69Q292 69 323 79T376 107T410 150T423 205Q423 271 379 303T254 335H173V373L326 581L378 625L304 616H94V700H489V661L320 434L280 405V402L318 409Q361 408 397 394T461 355T503 294T518 214Q518
158 497 116T440 45T356 2T253 -13Q204 -13 163 -6T92 15L117 97Q143 85 177 77T255 69Z" />
<glyph unicode="4" glyph-name="four" horiz-adv-x="594" d="M576 211H448V0H356V211H19V253L381 710H448V289H576V211ZM356 492L365 572H362L325 507L177 328L124 281L199 289H356V492Z" />
<glyph unicode="5" glyph-name="five" horiz-adv-x="594" d="M106 90Q131 81 159 76T232 71Q307 71 355 107T403 215Q403 284 355 318T220 353L129 349V700H476V612H217V431L264 433Q318 433 361 418T434 376T481 310T498 220Q498 163 477 120T420 47T334 2T229
-13Q181 -13 146 -7T80 10L106 90V90Z" />
<glyph unicode="6" glyph-name="six" horiz-adv-x="594" d="M540 212Q540 168 524 128T478 56T404 6T304 -13Q250 -13 206 4T129 53T80 132T62 239Q62 335 90 417T167 563T284 665T432 713L451 637Q391 629 342 602T255 535T193 447T161 348Q170 361 184 374T219
397T264 413T318 419Q369 419 410 405T480 363T524 298T540 212ZM445 205Q445 271 409 305T299 339Q246 339 209 316T156 264Q154 251 154 244T154 226Q154 197 163 169T191 118T238 81T305 67Q336 67 361 78T405 108T434 152T445 205Z" />
<glyph unicode="7" glyph-name="seven" horiz-adv-x="594" d="M115 0L385 573L433 622L368 612H62V700H526V671L211 0H115Z" />
<glyph unicode="8" glyph-name="eight" horiz-adv-x="594" d="M217 360Q190 375 167 391T126 429T98 476T88 535Q88 573 103 605T146 662T214 699T304 713Q350 713 387 701T451 667T492 616T507 551Q507 494 479 451T386 368Q415 352 440 335T484 295T513 246T524
185Q524 142 509 106T463 44T390 2T291 -13Q238 -13 198 1T129 40T86 98T71 170Q71 233 107 278T217 360ZM279 329Q215 297 188 258T161 183Q161 160 170 139T196 102T238 77T296 67Q323 67 348 74T391 96T421 131T432 181Q432 208 419 229T385 268T336 300T279
329ZM324 395Q370 428 393 461T416 532Q416 556 407 574T382 606T345 626T301 633Q272 633 250 625T213 603T189 572T181 537Q181 510 193 489T224 452T270 422T324 395Z" />
<glyph unicode="9" glyph-name="nine" horiz-adv-x="594" d="M53 487Q53 534 68 575T114 647T189 695T293 713Q349 713 393 695T469 644T516 564T533 458Q533 345 505 260T426 117T308 26T162 -13L142 62Q205 69 255 92T341 152T400 235T432 336Q417 320 402 309T368
292T327 283T275 280Q231 280 191 294T120 334T71 398T53 487ZM149 494Q149 427 190 393T296 358Q349 358 385 375T439 416Q441 428 441 437T441 457Q441 490 432 522T405 579T357 619T288 635Q222 635 186 598T149 494Z" />
<glyph unicode=":" glyph-name="colon" horiz-adv-x="273" d="M99 445Q99 474 117 491T166 508Q196 508 214 491T233 445Q233 418 215 400T166 382Q136 382 118 400T99 445ZM99 51Q99 80 117 97T166 114Q196 114 214 97T233 51Q233 24 215 6T166 -12Q136 -12 118
6T99 51Z" />
<glyph unicode=";" glyph-name="semicolon" horiz-adv-x="277" d="M93 47Q93 73 112 89T158 106Q193 106 215 83T237 17Q237 -22 226 -50T196 -99T157 -132T114 -150L86 -104Q124 -91 143 -63T162 -5Q135 -13 114 1T93 47ZM98 445Q98 474 116 491T165 508Q195
508 213 491T232 445Q232 418 214 400T165 382Q135 382 117 400T98 445Z" />
<glyph unicode="&lt;" glyph-name="less" horiz-adv-x="554" d="M44 300V338L463 574L505 502L249 358L149 321L248 289L510 146L469 76L44 300Z" />
<glyph unicode="=" glyph-name="equal" horiz-adv-x="554" d="M43 465H511V381H43V465ZM43 293H511V209H43V293Z" />
<glyph unicode="&gt;" glyph-name="greater" horiz-adv-x="554" d="M510 348V310L90 75L49 147L305 291L405 328L306 360L44 503L84 574L510 348Z" />
<glyph unicode="?" glyph-name="question" horiz-adv-x="479" d="M160 184Q156 234 167 270T199 334T243 384T289 428T325 475T340 533Q340 577 314 605T221 633Q181 633 140 618T69 586L37 658Q79 684 126 698T242 713Q291 713 328 700T390 665T427 612T440 546Q440
499 425 466T388 406T340 358T292 312T255 257T240 184H160ZM138 51Q138 80 156 97T205 114Q235 114 253 97T272 51Q272 24 254 6T205 -12Q175 -12 157 6T138 51Z" />
<glyph unicode="@" glyph-name="at" horiz-adv-x="1163" d="M770 490H812L756 208Q744 145 748 115T788 85Q824 85 859 102T922 150T967 226T985 326Q985 405 956 465T876 567T755 629T602 650Q513 650 436 619T302 534T212 405T179 242Q179 155 208 85T291 -35T423
-111T597 -138Q629 -138 668 -131T741 -109L764 -184Q716 -204 674 -211T582 -218Q478 -218 389 -188T234 -99T131 43T93 236Q93 348 134 439T245 594T409 694T607 730Q705 730 789 702T936 621T1034 494T1070 326Q1070 264 1046 207T981 105T884 34T767 7Q739
7 718 13T683 35T665 77T668 142H664Q648 118 627 94T581 51T527 19T464 7Q438 7 415 18T375 49T347 98T337 160Q337 220 359 280T421 388T511 466T620 496Q660 496 685 485T733 457L770 490ZM706 383Q688 402 670 410T624 418Q582 418 547 395T485 337T444 259T429
176Q429 140 445 113T507 85Q528 85 551 99T596 136T639 188T676 247L706 383Z" />
<glyph unicode="A" glyph-name="A" horiz-adv-x="645" d="M457 183H180L106 0H8L296 710H348L637 0H533L457 183ZM210 267H428L347 466L320 573H318L291 464L210 267Z" />
<glyph unicode="B" glyph-name="B" horiz-adv-x="641" d="M559 538Q559 512 551 487T525 439T480 399T416 374V370Q448 366 478 354T531 321T568 270T582 199Q582 145 557 106T491 41T399 3T295 -9Q277 -9 251 -9T197 -7T140 -3T89 5V694Q130 701 185 705T303
709Q346 709 391 702T474 675T535 623T559 538ZM187 82Q194 80 208 79T238 77T271 76T302 75Q336 75 367 82T423 104T461 142T476 197Q476 237 459 260T413 296T350 312T281 316H187V82ZM242 394Q261 394 286 395T328 399Q353 406 375 416T415 441T442 475T452
520Q452 554 439 574T403 606T353 621T296 625Q261 625 232 624T187 620V394H242Z" />
<glyph unicode="C" glyph-name="C" horiz-adv-x="624" d="M584 30Q551 6 500 -3T392 -13Q325 -13 265 8T158 74T85 187T58 350Q58 448 88 517T166 629T274 693T393 713Q459 713 501 706T572 688L550 602Q501 625 401 625Q356 625 314 611T238 564T184 479T164
350Q164 282 183 231T235 145T314 93T414 75Q463 75 499 84T560 107L584 30Z" />
<glyph unicode="D" glyph-name="D" horiz-adv-x="715" d="M89 700Q109 703 135 704T190 707T246 708T297 709Q389 709 456 683T568 609T635 497T657 355Q657 285 637 220T571 103T456 21T285 -10Q268 -10 240 -9T181 -7T126 -5T89 -1V700ZM300 621Q286 621 270
621T238 620T209 618T189 616V82Q194 81 208 81T239 80T269 79T289 78Q364 78 414 101T495 164T538 252T551 355Q551 400 539 447T498 532T421 596T300 621Z" />
<glyph unicode="E" glyph-name="E" horiz-adv-x="585" d="M89 700H512V614H189V401H484V315H189V86H517V0H89V700Z" />
<glyph unicode="F" glyph-name="F" horiz-adv-x="565" d="M89 700H512V614H189V391H489V305H189V0H89V700Z" />
<glyph unicode="G" glyph-name="G" horiz-adv-x="668" d="M348 353H610V44Q592 30 567 20T514 2T455 -9T396 -13Q324 -13 263 8T156 75T84 188T58 350Q58 447 89 516T171 629T282 693T405 713Q471 713 514 706T587 687L563 602Q511 625 413 625Q368 625 324 611T244
565T186 480T164 350Q164 279 182 227T234 141T312 91T410 75Q443 75 473 81T527 100V277L348 295V353Z" />
<glyph unicode="H" glyph-name="H" horiz-adv-x="733" d="M544 313H189V0H89V700H189V401H544V700H644V0H544V313Z" />
<glyph unicode="I" glyph-name="I" horiz-adv-x="398" d="M149 634H69V700H329V634H249V66H329V0H69V66H149V634Z" />
<glyph unicode="J" glyph-name="J" horiz-adv-x="325" d="M125 700H225V160Q225 82 185 36T65 -10Q55 -10 42 -9T14 -6T-13 0T-35 7L-16 90Q12 78 51 78Q96 78 110 107T125 187V700Z" />
<glyph unicode="K" glyph-name="K" horiz-adv-x="669" d="M238 318H189V0H89V700H189V378L235 392L487 700H601L349 400L302 366L357 326L635 0H509L238 318Z" />
<glyph unicode="L" glyph-name="L" horiz-adv-x="566" d="M547 0H89V700H189V88H547V0Z" />
<glyph unicode="M" glyph-name="M" horiz-adv-x="868" d="M679 451L690 563H686L643 466L448 156H418L213 467L172 562H167L183 452V0H89V700H164L401 343L438 267H440L475 345L700 700H779V0H679V451Z" />
<glyph unicode="N" glyph-name="N" horiz-adv-x="735" d="M235 445L175 543H171L183 445V0H89V710H145L502 256L559 163H564L552 256V700H646V-10H590L235 445Z" />
<glyph unicode="O" glyph-name="O" horiz-adv-x="747" d="M58 350Q58 436 79 503T141 617T240 688T373 713Q452 713 511 687T610 613T669 498T689 350Q689 264 668 197T605 83T506 12T373 -13Q293 -13 234 13T136 87T78 202T58 350ZM164 350Q164 293 176 243T214
155T279 95T373 73Q470 73 526 140T583 350Q583 406 571 456T533 544T468 604T373 627Q277 627 221 559T164 350Z" />
<glyph unicode="P" glyph-name="P" horiz-adv-x="614" d="M89 693Q131 702 180 705T278 709Q329 709 381 700T477 667T547 601T575 491Q575 428 550 384T484 311T389 270T278 257Q272 257 260 257T234 258T208 260T189 262V0H89V693ZM281 623Q254 623 229 622T189
617V348Q194 346 205 346T229 344T253 343T271 343Q307 343 342 348T405 370T451 415T469 490Q469 530 452 556T408 597T348 617T281 623Z" />
<glyph unicode="Q" glyph-name="Q" horiz-adv-x="747" d="M771 -181Q745 -188 719 -190T667 -193Q612 -193 560 -183T459 -160T365 -137T280 -126Q255 -126 231 -132V-46Q261 -40 291 -40Q336 -40 381 -50T473 -73T569 -95T673 -106Q696 -106 720 -104T771 -95V-181ZM58
350Q58 436 79 503T141 617T240 688T373 713Q452 713 511 687T610 613T669 498T689 350Q689 264 668 197T605 83T506 12T373 -13Q293 -13 234 13T136 87T78 202T58 350ZM164 350Q164 293 176 243T214 155T279 95T373 73Q470 73 526 140T583 350Q583 406 571 456T533
544T468 604T373 627Q277 627 221 559T164 350Z" />
<glyph unicode="R" glyph-name="R" horiz-adv-x="653" d="M89 693Q110 697 135 700T187 705T239 708T288 709Q338 709 384 699T466 666T523 606T545 515Q545 473 532 439T496 379T442 336T373 309L425 274L613 0H498L290 295L189 309V0H89V693ZM291 623Q277 623
263 623T234 622T208 620T189 617V375H271Q307 375 337 382T390 405T426 446T439 507Q439 561 401 592T291 623Z" />
<glyph unicode="S" glyph-name="S" horiz-adv-x="581" d="M433 184Q433 225 406 249T338 290T250 323T162 363T94 425T67 524Q67 609 129 661T308 713Q375 713 431 703T519 677L488 593Q463 606 413 616T303 627Q235 627 201 598T167 531Q167 492 194 468T262
426T350 390T438 348T506 287T533 193Q533 146 515 108T463 43T381 2T272 -13Q190 -13 134 -1T48 26L81 113Q106 100 156 87T268 73Q303 73 333 79T385 99T420 134T433 184Z" />
<glyph unicode="T" glyph-name="T" horiz-adv-x="610" d="M591 612H355V0H255V612H19V700H591V612Z" />
<glyph unicode="U" glyph-name="U" horiz-adv-x="710" d="M527 700H621V243Q621 178 603 131T550 53T470 6T366 -9Q231 -9 160 49T89 223V700H189V261Q189 159 233 119T365 79Q449 79 488 123T527 264V700Z" />
<glyph unicode="V" glyph-name="V" horiz-adv-x="628" d="M296 234L322 125H324L351 236L531 700H631L341 -10H291L-3 700H107L296 234Z" />
<glyph unicode="W" glyph-name="W" horiz-adv-x="913" d="M247 246L263 129H265L283 248L438 700H488L644 246L662 129H664L683 248L807 700H905L692 -10H635L482 445L461 551H456L436 444L283 -10H225L8 700H113L247 246Z" />
<glyph unicode="X" glyph-name="X" horiz-adv-x="678" d="M280 356L49 700H168L319 470L346 412L372 470L530 700H640L402 363L651 0H534L367 244L336 305L308 244L137 0H27L280 356Z" />
<glyph unicode="Y" glyph-name="Y" horiz-adv-x="617" d="M261 274L7 700H124L299 403L316 339H318L337 405L504 700H610L361 275V0H261V274Z" />
<glyph unicode="Z" glyph-name="Z" horiz-adv-x="596" d="M39 88L416 572L465 612H39V700H557V612L177 125L130 88H557V0H39V88Z" />
<glyph unicode="[" glyph-name="bracketleft" horiz-adv-x="336" d="M89 700H295V620H181V-150H295V-230H89V700Z" />
<glyph unicode="\" glyph-name="backslash" horiz-adv-x="421" d="M442 -103L366 -140L-36 676L40 712L442 -103Z" />
<glyph unicode="]" glyph-name="bracketright" horiz-adv-x="336" d="M247 -230H41V-150H155V620H41V700H247V-230Z" />
<glyph unicode="^" glyph-name="asciicircum" horiz-adv-x="554" d="M266 710H304L492 430H394L309 562L283 631L251 561L151 430H61L266 710Z" />
<glyph unicode="_" glyph-name="underscore" horiz-adv-x="452" d="M0 -131H452V-209H0V-131Z" />
<glyph unicode="`" glyph-name="grave" horiz-adv-x="301" d="M241 570H187L60 697V720H170L241 570Z" />
<glyph unicode="a" glyph-name="a" horiz-adv-x="582" d="M82 492Q172 535 305 535Q365 535 401 520T458 480T484 427T491 368Q491 313 487 258T483 137Q483 99 486 64T498 -2H431L406 78H396Q385 63 369 48T331 20T281 0T215 -8Q178 -8 147 2T94 32T58 78T45
140Q45 185 64 218T115 272T185 303T264 313Q295 313 316 312T352 310T377 307T395 304Q397 319 398 330T399 358Q399 386 393 405T374 435T337 452T281 457Q262 457 239 454T193 446T148 432T107 415L82 492ZM395 238Q387 239 378 241T356 244T324 246T278 247Q216
247 180 225T143 150Q143 110 171 90T245 70Q278 70 303 78T347 99T377 127T395 158V238Z" />
<glyph unicode="b" glyph-name="b" horiz-adv-x="629" d="M88 700H180V460H190Q213 500 256 519T347 539Q456 539 512 473T569 272Q569 135 495 63T287 -9Q221 -9 168 2T88 28V700ZM334 461Q302 461 278 451T234 424T202 384T180 337V88Q229 69 299 69Q378 69
424 117T471 273Q471 313 463 347T438 407T396 446T334 461Z" />
<glyph unicode="c" glyph-name="c" horiz-adv-x="529" d="M484 36Q449 11 402 -1T303 -14Q237 -14 191 6T115 62T73 149T60 262Q60 395 124 467T310 540Q363 540 402 531T472 507L448 432Q421 446 390 454T321 462Q158 462 158 262Q158 224 167 189T196 126T248
81T328 64Q370 64 401 75T454 103L484 36Z" />
<glyph unicode="d" glyph-name="d" horiz-adv-x="629" d="M538 181Q538 130 539 86T549 -2H488L465 78H455Q432 38 388 12T284 -14Q171 -14 116 53T60 259Q60 393 128 464T321 536Q342 536 358 535T389 531T417 525T446 517V700H538V181ZM446 428Q423 445 397
451T326 458Q245 458 201 411T156 258Q156 216 164 181T189 119T234 79T303 64Q364 64 398 94T446 185V428Z" />
<glyph unicode="e" glyph-name="e" horiz-adv-x="598" d="M515 43Q480 17 428 2T315 -14Q249 -14 201 5T121 61T75 148T60 262Q60 397 126 468T316 540Q355 540 394 532T464 500T514 435T534 328Q534 312 533 291T529 250H154Q156 158 198 111T341 64Q383 64 421
78T480 113L515 43ZM446 316Q448 396 414 429T317 462Q247 462 206 429T158 316H446Z" />
<glyph unicode="f" glyph-name="f" horiz-adv-x="364" d="M24 525H113V539Q113 588 122 621T150 675T201 705T278 714Q316 714 344 710T404 694L384 619Q358 630 336 633T292 636Q264 636 247 631T221 614T208 580T205 525H359V447H205V0H113V447H24V525Z" />
<glyph unicode="g" glyph-name="g" horiz-adv-x="627" d="M537 -3Q537 -106 477 -156T299 -207Q231 -207 189 -199T117 -177L139 -94Q152 -100 169 -106T205 -118T243 -126T281 -129Q330 -129 362 -121T413 -94T439 -48T446 19V56H435Q419 30 379 14T282 -2Q168
-2 114 59T60 258Q60 393 130 466T338 539Q404 539 451 531T537 510V-3ZM302 76Q363 76 397 107T445 188V446Q422 453 392 457T324 461Q246 461 202 412T158 260Q158 172 190 124T302 76Z" />
<glyph unicode="h" glyph-name="h" horiz-adv-x="641" d="M461 0V290Q461 333 456 364T436 417T397 448T335 458Q309 458 284 449T238 424T202 386T180 335V0H88V700H180V460H191Q221 496 263 518T367 540Q415 540 450 530T508 493T542 422T553 310V0H461Z" />
<glyph unicode="i" glyph-name="i" horiz-adv-x="317" d="M114 525H206V0H114V525ZM95 650Q95 673 113 691T160 710Q189 710 208 692T227 650Q227 627 208 610T160 592Q131 592 113 609T95 650Z" />
<glyph unicode="j" glyph-name="j" horiz-adv-x="312" d="M112 525H204V-18Q204 -115 168 -162T50 -210Q42 -210 33 -210T12 -208V-132Q45 -133 64 -124T94 -97T108 -51T112 15V525ZM91 650Q91 673 109 691T156 710Q185 710 204 692T223 650Q223 627 204 610T156
592Q127 592 109 609T91 650Z" />
<glyph unicode="k" glyph-name="k" horiz-adv-x="557" d="M237 236H180V0H88V700H180V286L232 303L406 525H514L347 322H348L293 282L356 237L541 0H425L237 236Z" />
<glyph unicode="l" glyph-name="l" horiz-adv-x="336" d="M192 139Q192 98 207 81T249 64Q265 64 280 66T316 74L328 6Q318 2 304 -1T275 -8T245 -12T218 -14Q164 -14 132 13T100 105V700H192V139Z" />
<glyph unicode="m" glyph-name="m" horiz-adv-x="948" d="M428 0V288Q428 330 424 362T408 415T375 447T319 458Q266 458 231 429T180 353V0H88V525H151L169 455H179Q211 491 252 515T358 540Q412 540 448 517T504 440Q534 486 580 513T683 540Q731 540 764 529T819
491T850 418T860 302V0H768V302Q768 342 764 371T747 419T714 448T657 458Q600 458 567 428T520 338V0H428Z" />
<glyph unicode="n" glyph-name="n" horiz-adv-x="641" d="M461 0V290Q461 374 434 416T338 458Q277 458 237 427T180 346V0H88V525H152L170 455H179Q208 491 254 515T366 540Q412 540 447 530T505 493T541 422T553 309V0H461Z" />
<glyph unicode="o" glyph-name="o" horiz-adv-x="631" d="M60 262Q60 327 77 378T127 466T207 521T316 540Q380 540 428 519T508 461T555 373T571 262Q571 198 554 147T504 60T424 5T316 -14Q250 -14 202 7T123 65T76 152T60 262ZM158 262Q158 225 166 190T194
126T243 81T317 64Q473 64 473 262Q473 301 465 337T438 400T389 445T317 462Q239 462 199 413T158 262Z" />
<glyph unicode="p" glyph-name="p" horiz-adv-x="630" d="M88 525H150L168 458H177Q204 497 247 518T344 540Q458 540 514 477T570 274Q570 208 552 155T499 64T415 6T304 -14Q284 -14 268 -13T237 -8T209 0T180 11V-200H88V525ZM323 462Q263 462 229 432T180
340V98Q203 82 230 73T299 64Q380 64 426 117T472 275Q472 360 438 411T323 462Z" />
<glyph unicode="q" glyph-name="q" horiz-adv-x="625" d="M537 -200H446L445 57H434Q411 23 376 5T283 -14Q60 -14 60 258Q60 395 131 465T342 536Q372 536 401 533T456 526T502 516T537 504V-200ZM445 438Q399 458 325 458Q244 458 201 409T158 260Q158 216 165
180T190 119T235 79T303 64Q363 64 396 94T445 184V438Z" />
<glyph unicode="r" glyph-name="r" horiz-adv-x="380" d="M362 438Q345 443 329 447T299 451Q246 451 217 424T180 356V0H88V525H152L170 455H179Q202 494 232 515T309 537Q323 537 342 535T380 526L362 438Z" />
<glyph unicode="s" glyph-name="s" horiz-adv-x="499" d="M353 147Q353 167 344 180T318 203T281 220T237 234Q208 242 179 251T126 277T87 320T72 386Q72 464 118 502T249 540Q312 540 355 528T430 502L408 424Q381 437 344 449T261 462Q212 462 188 446T164
388Q164 371 173 360T197 340T232 325T274 312Q304 304 334 294T389 266T429 221T445 153Q445 79 395 33T245 -14Q181 -14 134 -1T54 29L80 109Q108 94 152 79T241 64Q290 64 321 81T353 147Z" />
<glyph unicode="t" glyph-name="t" horiz-adv-x="405" d="M24 525H113V631L205 655V525H363V447H205V179Q205 116 221 90T276 64Q301 64 321 69T368 84L389 19Q357 5 321 -4T242 -14Q172 -14 143 24T113 148V447H24V525Z" />
<glyph unicode="u" glyph-name="u" horiz-adv-x="644" d="M180 525V236Q180 194 185 162T203 109T238 76T296 64Q356 64 394 98T452 182V525H544V149Q544 111 547 72T556 0H494L470 87H460Q434 42 388 14T273 -14Q227 -14 193 -3T135 34T100 105T88 215V525H180Z" />
<glyph unicode="v" glyph-name="v" horiz-adv-x="535" d="M242 223L277 115L310 225L435 525H535L290 -11H250L0 525H108L242 223Z" />
<glyph unicode="w" glyph-name="w" horiz-adv-x="840" d="M468 525L554 326L597 225L624 124H631L654 228L752 525H840L649 -11H599L452 328V327L426 424L396 326V327L255 -11H207L8 525H109L220 228L239 123H248L276 230L397 525H468Z" />
<glyph unicode="x" glyph-name="x" d="M233 269L44 525H161L263 391L298 320L339 391L445 525H549L358 273Q408 206 460 137T562 0H448L333 149L293 224L252 149L136 0H30L233 269Z" />
<glyph unicode="y" glyph-name="y" horiz-adv-x="531" d="M251 193L282 92H295L320 194L429 525H523L351 50Q332 1 313 -45T270 -126T218 -183T152 -205Q112 -205 84 -196L99 -118Q114 -123 129 -123Q149 -123 165 -118T196 -100T221 -64T243 -3L8 525H117L251 193Z" />
<glyph unicode="z" glyph-name="z" horiz-adv-x="515" d="M48 79L307 395L377 447H48V525H461V446L199 127L129 78H461V0H48V79Z" />
<glyph unicode="{" glyph-name="braceleft" horiz-adv-x="383" d="M146 108Q146 159 124 178T59 197V273Q101 273 123 293T146 358V591Q146 639 172 670T251 701H351V621H295Q238 621 238 559V335Q238 291 215 269T161 241V233Q190 229 214 203T238 135V-88Q238
-119 251 -134T296 -150H351V-230H251Q202 -230 174 -202T146 -121V108Z" />
<glyph unicode="|" glyph-name="bar" horiz-adv-x="258" d="M89 700H169V-130H89V700Z" />
<glyph unicode="}" glyph-name="braceright" horiz-adv-x="383" d="M263 363Q263 312 286 293T351 274V198Q309 198 286 178T263 113V-120Q263 -168 237 -199T156 -230H59V-150H114Q171 -150 171 -88V136Q171 180 194 202T247 230V238Q218 242 195 268T171 336V559Q171
621 113 621H59V701H157Q206 701 234 673T263 592V363Z" />
<glyph unicode="~" glyph-name="asciitilde" horiz-adv-x="554" d="M34 365Q82 399 120 412T190 425Q221 425 247 417T297 398T345 380T393 371Q413 371 435 378T483 406L520 335Q479 309 447 299T388 288Q359 288 335 296T287 315T240 335T190 344Q165 344 136
333T70 295L34 365Z" />
</font>
<style type="text/css"><![CDATA[/* -*- Mode: CSS; tab-width: 2; indent-tabs-mode: nil; -*- */
/* vim:set ft=css ts=2 sw=2 sts=2 autoindent: */

/* Styling for annotations */

/* alternative font test */
/*
text {
  font-size: 13px;
  font-family: helvetica,arial,freesans,clean,sans-serif;
}
*/

#svg {
  margin: 34px auto 100px;
  padding-top: 15px;
}

.center_wrapper {
  display: table;
  position: absolute;
  top: 0;
  left: 0;
  height: 100%;
  width: 100%;
}
.center_wrapper > div {
  display: table-cell;
  vertical-align: middle;
}
.center_wrapper > div > div {
  /* match jQuery UI .ui-widget-content color */
  color: #2e6e9e;
  margin-left: auto;
  margin-right: auto;
  width: 30em;
  font-size: 12px;
  font-family: 'Liberation Sans', Verdana, Arial, Helvetica, sans-serif;
}
.center_wrapper > div > div h1 {
  text-align: center;
  font-size: 14px;
}
#no_svg_wrapper {
  display: none;
}

svg {
  width: 100%;
  height: 1px;
  border: 1px solid #7fa2ff;
  font-size: 15px;
  /* font-size: 14px; */
}
svg.reselect {
  border: 1px solid #ff3333;
}

/* "basic" font */
text {
  font-size: 13px;
  font-family: 'Liberation Sans', Verdana, Arial, Helvetica, sans-serif;
}

@-webkit-keyframes pulse {
  0% { color: #9999ff; margin-top: 0; }
  50% { color: #ffffff; margin-top: 7px; }
  100% { color: #9999ff; margin-top: 0; }
}

path {
  pointer-events: none;
}

/* "basic" font */
.span text {
  /*  font-size: 10.5px; */
  font-size: 10px;
  text-anchor: middle;
  font-family: 'PT Sans Caption', sans-serif;
  pointer-events: none;
}

/* this should likely match span font */
.span_type_label {
  font-size: 11px;
  font-family: 'PT Sans Caption', sans-serif;
}
/* this should likely match arc font */
.arc_type_label {
  font-size: 11px;
  font-family: 'PT Sans Caption', sans-serif;
}
.attribute_type_label .ui-button-text {
  font-size: 11px;
  font-family: 'PT Sans Caption', sans-serif;
}

.span rect {
  stroke-width: 0.75;
}

.glyph {
  fill: #444444;
  font-family: sans-serif;
  font-weight: bold;
}
.attribute_warning {
  stroke: red;
}

.span rect.False_positive {
  stroke: #ff4141;
  stroke-width: 2;
}

.shadow_True_positive {
  fill: #00ff00;
}

.shadow_False_positive {
  fill: #ff4141;
}

#commentpopup.comment_False_positive {
  background-color: #ff4141;
}

.span rect.False_negative {
  stroke: #c20000;
  fill: #ffffff;
  stroke-width: 2;
}

.shadow_False_negative {
  fill: #c20000;
}

#commentpopup.comment_False_negative {
  background-color: #c20000;
}

.span rect.AnnotationError {
  stroke-width: 1;
}

.shadow_AnnotationError {
  fill: #ff0000;
}

#commentpopup.comment_AnnotationError {
  background-color: #ff7777;
}

.span rect.AnnotationWarning {
  stroke-width: 1;
}

.shadow_AnnotationWarning {
  fill: #ff8800;
}

#commentpopup.comment_AnnotationWarning {
  background-color: #ff9900;
}

.shadow_AnnotatorNotes {
  /* fill: #00cc00; */
  fill: #3ab7ee;
}
#commentpopup.comment_AnnotatorNotes {
  /* background-color: #00cc00; */
  /* background-color: #DAF7DC; */
  background-color: #d7e7ee;
}

.shadow_Normalized {
  /* fill: #00cc00; */
  fill: #3aee37;
}
#commentpopup.comment_Normalized {
  /* background-color: #00cc00; */
  /* background-color: #DAF7DC; */
  background-color: #d7eee7;
}
rect.Normalized {
  stroke-width: 1.5;
}

.shadow_AnnotationIncomplete {
  fill: #aaaaaa;
}
.span rect.AnnotationIncomplete {
  stroke: #002200;
  stroke-width: 0.5;
  fill: #ffffff;
}
#commentpopup.comment_AnnotationIncomplete {
  background-color: #ffff77;
}

.shadow_AnnotationUnconfirmed {
  fill: #eeeeee;
}
.span rect.AnnotationUnconfirmed {
  stroke: #002200;
  stroke-width: 0.5;
  opacity : 0.5;
}
#commentpopup.comment_AnnotationUnconfirmed {
  background-color: #ddddff;
}

.span rect.True_positive {
  /* stroke: #007700; */
}

rect.shadow_EditHighlight {
  fill: #ffff99;
}
.shadow_EditHighlight_arc {
  stroke: #ffff99;
}

.span path {
  fill: none;
}

.span path.curly {
  /* 'stroke' def here blocks 'stroke' set in JS..? */
  /* stroke: grey; */
  stroke-width: 0.5;
}

.span path.boxcross {
  stroke: black;
  opacity: 0.5;
}

.arcs path {
  stroke: #989898;
  fill: none;
  stroke-width: 1;
}

.arcs .highlight path {
  stroke: #000000;
  stroke-width: 1.5;
  opacity: 1;
}
.arcs .highlight text {
  stroke: black;
  fill: black;
  stroke-width: 0.5;
}
.span.highlight rect {
  stroke-width: 2px;
}
.span rect.reselect {
  stroke-width: 2px;
}
.span rect.reselectTarget {
  stroke-width: 2px;
}
.arcs .reselect path {
  stroke-width: 2px;
  stroke: #ff0000 !important;
}
.arcs .reselect text {
  fill: #ff0000 !important;
}

.span rect.badTarget {
  stroke: #f00;
}

.arcs text {
  font-size: 9px;
  text-anchor: middle;
  font-family: 'PT Sans Caption', sans-serif;
  /* dominant-baseline: central; */
  cursor: default;
}

.background0 {
  stroke: none;
  fill: #ffffff;
}

.background1 {
  stroke: none;
  fill: #eeeeee;
}

.backgroundHighlight {
  stroke: none;
  fill: #ffff99;
}

.sentnum text {
  fill: #999999;
  text-anchor: end;
}

.sentnum path {
  stroke: #999999;
  stroke-width: 1px;
}

.span_cue {
  fill: #eeeeee !important;
}

.drag_stroke {
  stroke: black;
}
.drag_fill {
  fill: black;
}


.dialog {
  display: none;
}
#span_free_div, #arc_free_div {
  float: left;
}
fieldset {
  /* match relevant parts of jQuery UI .ui-widget-content */
  border: 1px solid #a6c9e2;
  /* round corners, same as jQuery UI .ui-corner-all */
  -moz-border-radius: 5px;
  -webkit-border-radius: 5px;
  border-radius: 5px;
  /* to prevent border from running into legend */
  margin-top: 5px;
}
fieldset legend {
  font-weight: bold;
  font-size: 90%;
  -moz-border-radius: 3px;
  -webkit-border-radius: 3px;
  border-radius: 3px;
  background-color: #70a8d2;
  color: white;
  padding-left: 0.5em;
  padding-right: 0.5em;
}
.label-like {
   /* for UI consistency, this should match the "fieldset legend" style;
      sorry about the duplication. */
  font-family: monospace;
  font-weight: bold;
  font-size: 90%;
  /* match jQuery UI .ui-widget-content color */
  color: #2e6e9e;
}   

.accesskey {
  text-decoration: underline;
}


.shadow {
  -moz-box-shadow: 5px 5px 5px #444444;
  -webkit-box-shadow: 5px 5px 5px #444444;
  box-shadow: 5px 5px 5px #444444;
}

#span_selected, #arc_origin, #arc_target {
  font-weight: bold;
}

#commentpopup {
  font-family: 'Liberation Sans', Verdana, Arial, Helvetica, sans-serif;
  position: fixed;
  top: 0;
  left: 0;
  opacity: 0.95;
  padding: 10px;
  display: none;
  border: 1px outset #000000;
  background-color: #f5f5f9;
  /* background-color: #d7e7ee; */
  /* background-color: #eeeeee; */
  color: #000000;
  z-index: 20;
  -moz-box-shadow: 5px 5px 5px #aaaaaa;
  -webkit-box-shadow: 5px 5px 5px #aaaaaa;
  box-shadow: 5px 5px 5px #aaaaaa;
  -moz-border-radius: 3px;
  -webkit-border-radius: 3px;
  border-radius: 3px;
  max-width: 80%;
}
#more_info_readme {
  height: 350px;
}
#readme_container {
  position: relative;
}
#more_readme_button {                   
  padding: 2px 5px;
  position: absolute;
  top: -2px;
  right: -2px;
}

.comment_id {
  vertical-align: top;
  float:right;
  font-size: 75%;
  font-family: monospace;
  color: #333333;
}
.comment_type {
  /* font-weight: bold; */
}
.comment_text {
  font-weight: bold;
}
.comment_type_id_wrapper {
  /* padding for floating ID */
  padding-right: 2em;
}
.norm_info_label {
  font-weight: bold;
  font-size: 80%;
}
.norm_info_value {
  font-size: 80%;
}
.norm_info_img {
  float: right;
  margin-left: 1em;
}

#search_form select {
  width: 100%; /* deal with overflowing selectboxes */
}

.scroll_fset {
  height: 200px;
}
.scroll_fset fieldset {
  height: 100%;
  overflow-x: hidden;
  overflow-y: hidden;
}
/* HACK to display <legend> properly */
  .scroll_fset {
    margin-bottom: 2.5em;
  }
  .scroll_fset fieldset {
    padding-bottom: 2em;
  }
/* end HACK */
.scroll_fset div.scroller {
  overflow: auto;
  width: 100%;
  height: 100%;
}

#span_highlight_link, #arc_highlight_link, #viewspan_highlight_link {
  float: right;
}

.unselectable {
   -moz-user-select: -moz-none;
   -khtml-user-select: none;
   -webkit-user-select: none;
   -o-user-select: none;
   user-select: none;
   cursor: default;
}
@font-face {
  font-family: 'Liberation Sans';
  font-style: normal;
  font-weight: normal;
  src: local('Liberation Sans'), local('Liberation-Sans'), url('static/fonts/Liberation_Sans-Regular.ttf') format('truetype');
}
@font-face {
  font-family: 'PT Sans Caption';
  font-style: normal;
  font-weight: normal;
  src: local('PT Sans Caption'), local('PTSans-Caption'), url('static/fonts/PT_Sans-Caption-Web-Regular.ttf') format('truetype');
}

/* Apple iPad, iPhone, iPod */

* {
   -webkit-tap-highlight-color: rgba(0,0,0,0);
   -webkit-text-size-adjust: none;
   select: none;
}

.span rect.AddedAnnotation {
  stroke: #ff4141;
  stroke-width: 2;
}
.shadow_AddedAnnotation {
  fill: #ff4141;
}
#commentpopup.comment_AddedAnnotation {
  background-color: #ffcccc;
}
.span rect.MissingAnnotation {
  stroke: #ffffff;
  stroke-width: 2;
}
.shadow_MissingAnnotation {
  fill: #ff4141;
  opacity: 0.3;
}
#commentpopup.comment_MissingAnnotation {
  background-color: #ffcccc;
}
.span rect.MissingAnnotation + text {
  opacity: 0.5;
}
.span rect.ChangedAnnotation {
  stroke: #ffff99;
  stroke-width: 2;
}
.shadow_ChangedAnnotation {
  fill: #ff4141;
}
#commentpopup.comment_ChangedAnnotation {
  background-color: #ffcccc;
}
]]></style>
</defs><g class="background"><rect x="0" y="3.765625" width="1116" height="17.546875" class="background0"/><rect x="0" y="21.3125" width="1116" height="54.546875" class="background1"/><rect x="0" y="75.859375" width="1116" height="17.546875" class="background0"/></g><g class="glow"/><g class="highlight"><rect x="30.5" y="59.3125" width="18.05908203125" height="13.546875" fill="#ecf1fb" rx="3" ry="3"/><rect x="61.95300102233887" y="59.3125" width="86.6962890625" height="13.546875" fill="#ecf1fb" rx="3" ry="3"/><rect x="182.7060031890869" y="59.3125" width="36.13720703125" height="13.546875" fill="#eefdec" rx="3" ry="3"/></g><g class="text"><text x="0" y="0"><tspan x="24" y="15.546875" data-chunk-id="0" class="">P142850, </tspan><tspan x="83.66259765625" y="15.546875" data-chunk-id="1" class="">rII.18
</tspan></text><text x="0" y="0"><tspan x="30.5" y="70.09375" data-chunk-id="2" class="">mu </tspan><tspan x="61.95300102233887" y="70.09375" data-chunk-id="3" class="">si-ma-num2{ki} </tspan><tspan x="182.7060031890869" y="70.09375" data-chunk-id="4" class="">ba-hul
</tspan></text><text x="0" y="0"><tspan x="24" y="87.640625" data-chunk-id="5" class="">year: </tspan><tspan x="56.90087890625" y="87.640625" data-chunk-id="6" class="">Simanum </tspan><tspan x="115.80810546875" y="87.640625" data-chunk-id="7" class="">was </tspan><tspan x="142.92626953125" y="87.640625" data-chunk-id="8" class="">destroyed</tspan></text></g><g transform="translate(0, 15)"><g/><g transform="translate(24, 0)"><g/></g><g transform="translate(83.66259765625, 0)"><g/></g><g class="arcs"/></g><g transform="translate(0, 70)"><g/><g transform="translate(30.5, 0)"><g/><g class="span"><rect x="-6.5" y="-29.046875" width="33.27000045776367" height="10.765625" class="span_NOUN span_default" fill="#a4bced" stroke="#1a3d85" rx="2" ry="1" data-span-id="T1" data-fragment-id="0"/><text x="9.5" y="-20.546875" fill="black">NOUN</text><path d="M0,-11.28125C0,-17.28125 9.5,-11.28125 9.5,-17.28125C9.5,-11.28125 18.05908203125,-17.28125 18.05908203125,-11.28125" class="curly" stroke="#1a3d85"/></g></g><g transform="translate(61.95300102233887, 0)"><g/><g class="span"><rect x="26.5" y="-29.046875" width="33.27000045776367" height="10.765625" class="span_NOUN span_default" fill="#a4bced" stroke="#1a3d85" rx="2" ry="1" data-span-id="T2" data-fragment-id="0"/><text x="43.5" y="-20.546875" fill="black">NOUN</text><path d="M0,-11.28125C0,-17.28125 43.5,-11.28125 43.5,-17.28125C43.5,-11.28125 86.6962890625,-17.28125 86.6962890625,-11.28125" class="curly" stroke="#1a3d85"/></g></g><g transform="translate(182.7060031890869, 0)"><g/><g class="span"><rect x="3.5" y="-29.046875" width="29.06999969482422" height="10.765625" class="span_VERB span_default" fill="#adf6a2" stroke="#20940e" rx="2" ry="1" data-span-id="T3" data-fragment-id="0"/><text x="18.5" y="-20.546875" fill="black">VERB</text><path d="M0,-11.28125C0,-17.28125 18.5,-11.28125 18.5,-17.28125C18.5,-11.28125 36.13720703125,-17.28125 36.13720703125,-11.28125" class="curly" stroke="#20940e"/></g></g><g class="arcs"><g data-from="T1" data-to="T2" class=""><text x="72.86150074005127" y="-32.8515625" fill="black" data-arc-role="flat" data-arc-origin="T1" data-arc-target="T2" data-arc-ed="R2" class="">flat</text><path d="M64.27000045776367,-35.5L63.27000045776367,-35.5Q60.27000045776367,-35.5 57.27000045776367,-23.6640625" style="stroke: black"/><path d="M81.45300102233887,-35.5L82.45300102233887,-35.5Q85.45300102233887,-35.5 88.45300102233887,-28.046875" marker-end="url(#arrow_triangle_5_black)" style="stroke: black"/></g><g data-from="T3" data-to="T2" class=""><g><rect x="127.72300148010254" y="-42.796875" width="52.483001708984375" height="14.59375" class="shadow_EditHighlight" rx="2" ry="2"><animate data-type="edited" attributeName="fill" values="#FF9632;#FFCC00;#FF9632" dur="2s" repeatCount="indefinite" begin="indefinite"/><animate data-type="edited" attributeName="fill" values="#FF9632;#FFCC00;#FF9632" dur="2s" repeatCount="indefinite" begin="indefinite"/></rect><path d="M128.72300148010254,-35.5L127.72300148010254,-35.5Q124.72300148010254,-35.5 121.72300148010254,-28.046875" class="shadow_EditHighlight_arc" stroke-width="7"/><path d="M179.2060031890869,-35.5L180.2060031890869,-35.5Q183.2060031890869,-35.5 186.2060031890869,-23.6640625" class="shadow_EditHighlight_arc" stroke-width="7"/><path d="M179.2060031890869,-35.5L180.2060031890869,-35.5Q183.2060031890869,-35.5 186.2060031890869,-23.6640625" class="shadow_undefined" stroke-width="2.5"/></g><text x="153.96450233459473" y="-32.8515625" fill="black" data-arc-role="nsubj_pass" data-arc-origin="T3" data-arc-target="T2" data-arc-ed="R1" class="">nsubj_pass</text><path d="M128.72300148010254,-35.5L127.72300148010254,-35.5Q124.72300148010254,-35.5 121.72300148010254,-28.046875" marker-end="url(#arrow_triangle_5_black)" style="stroke: black"/><path d="M179.2060031890869,-35.5L180.2060031890869,-35.5Q183.2060031890869,-35.5 186.2060031890869,-23.6640625" style="stroke: black"/></g></g></g><g transform="translate(0, 87)"><g/><g transform="translate(24, 0)"><g/></g><g transform="translate(56.90087890625, 0)"><g/></g><g transform="translate(115.80810546875, 0)"><g/></g><g transform="translate(142.92626953125, 0)"><g/></g><g class="arcs"/></g><g class="sentnum"><a NS1:href="#/cuneiform/Syntax Examples/nsubj?focus=sent~1" xmlns:NS1="http://www.w3.org/1999/xlink"><text x="18" y="15.546875" data-sent="1">1</text></a><a NS2:href="#/cuneiform/Syntax Examples/nsubj?focus=sent~2" xmlns:NS2="http://www.w3.org/1999/xlink"><text x="18" y="70.09375" data-sent="2">2</text></a><a NS3:href="#/cuneiform/Syntax Examples/nsubj?focus=sent~3" xmlns:NS3="http://www.w3.org/1999/xlink"><text x="18" y="87.640625" data-sent="3">3</text></a><path d="M20,0L20,91.640625"/></g></svg>